<svg width="19" height="11" viewBox="0 0 19 11" fill="none" xmlns="http://www.w3.org/2000/svg">
<path d="M9.50376 7.62943L2.76974 1.24226C2.58477 1.06638 2.33745 0.969635 2.07375 0.969635C1.8099 0.969635 1.56273 1.06638 1.37746 1.24226L0.787706 1.80194C0.602146 1.97753 0.5 2.21226 0.5 2.46239C0.5 2.71252 0.602146 2.94697 0.787706 3.12271L8.80513 10.7277C8.99098 10.9041 9.23932 11.0007 9.50332 11C9.76849 11.0007 10.0165 10.9042 10.2025 10.7277L18.2122 3.12979C18.3978 2.95405 18.4999 2.7196 18.4999 2.46933C18.4999 2.2192 18.3978 1.98475 18.2122 1.80888L17.6224 1.24934C17.2386 0.885239 16.6137 0.885239 16.23 1.24934L9.50376 7.62943Z" fill="#828282"/>
</svg>
